{
  "cnt": 3,
  "list": [
    {
      "coord": {
        "lon": 37.62,
        "lat": 55.75
      },
      "sys": {
        "country": "RU",
        "timezone": 10800,
        "sunrise": 1597889504,
        "sunset": 1597942460
      },
      "weather": [
        {
          "id": 801,
          "main": "Clouds",
          "description": "few clouds",
          "icon": "02d"
        }
      ],
      "main": {
        "temp": 293.69,
        "feels_like": 291.27,
        "temp_min": 292.15,
        "temp_max": 295.37,
        "pressure": 1016,
        "humidity": 55
      },
      "visibility": 10000,
      "wind": {
        "speed": 4,
        "deg": 70
      },
      "clouds": {
        "all": 20
      },
      "dt": 1597928962,
      "id": 524901,
      "name": "Moscow"
    },
    {
      "coord": {
        "lon": 30.52,
        "lat": 50.43
      },
      "sys": {
        "country": "UA",
        "timezone": 10800,
        "sunrise": 1597892074,
        "sunset": 1597943297
      },
      "weather": [
        {
          "id": 802,
          "main": "Clouds",
          "description": "scattered clouds",
          "icon": "03d"
        }
      ],
      "main": {
        "temp": 304.7,
        "feels_like": 302.11,
        "temp_min": 304.15,
        "temp_max": 306.15,
        "pressure": 1007,
        "humidity": 23
      },
      "visibility": 10000,
      "wind": {
        "speed": 3,
        "deg": 150
      },
      "clouds": {
        "all": 50
      },
      "dt": 1597928982,
      "id": 703448,
      "name": "Kyiv"
    },
    {
      "coord": {
        "lon": -0.13,
        "lat": 51.51
      },
      "sys": {
        "country": "GB",
        "timezone": 3600,
        "sunrise": 1597899281,
        "sunset": 1597950800
      },
      "weather": [
        {
          "id": 801,
          "main": "Clouds",
          "description": "few clouds",
          "icon": "02d"
        }
      ],
      "main": {
        "temp": 298.02,
        "feels_like": 295.2,
        "temp_min": 297.04,
        "temp_max": 298.71,
        "pressure": 1004,
        "humidity": 50
      },
      "visibility": 10000,
      "wind": {
        "speed": 5.7,
        "deg": 220
      },
      "clouds": {
        "all": 20
      },
      "dt": 1597929061,
      "id": 2643743,
      "name": "London"
    }
  ]
  }
